Introduction to farsdata Package
…
## Warning: `tbl_df()` was deprecated in dplyr 1.0.0.
## ℹ Please use `tibble::as_tibble()` instead.
## ℹ The deprecated feature was likely used in the farsdata package.
##   Please report the issue to the authors.
## This warning is displayed once every 8 hours.
## Call `lifecycle::last_lifecycle_warnings()` to see where this warning was
## generated.

dim(fars_2013)

## [1] 30202    50

fars_2013

## # A tibble: 30,202 × 50
##    STATE ST_CASE VE_TOTAL VE_FORMS PVH_INVL  PEDS PERNOTMVIT PERMVIT PERSONS
##    <dbl>   <dbl>    <dbl>    <dbl>    <dbl> <dbl>      <dbl>   <dbl>   <dbl>
##  1     1   10001        1        1        0     0          0       8       8
##  2     1   10002        2        2        0     0          0       2       2
##  3     1   10003        1        1        0     0          0       1       1
##  4     1   10004        1        1        0     0          0       3       3
##  5     1   10005        2        2        0     0          0       3       3
##  6     1   10006        2        2        0     0          0       3       3
##  7     1   10007        1        1        0     0          0       1       1
##  8     1   10008        2        2        0     0          0       2       2
##  9     1   10009        1        1        0     0          0       1       1
## 10     1   10010        2        2        0     0          0       4       4
## # ℹ 30,192 more rows
## # ℹ 41 more variables: COUNTY <dbl>, CITY <dbl>, DAY <dbl>, MONTH <dbl>,
## #   YEAR <dbl>, DAY_WEEK <dbl>, HOUR <dbl>, MINUTE <dbl>, NHS <dbl>,
## #   ROAD_FNC <dbl>, ROUTE <dbl>, TWAY_ID <chr>, TWAY_ID2 <chr>, MILEPT <dbl>,
## #   LATITUDE <dbl>, LONGITUD <dbl>, SP_JUR <dbl>, HARM_EV <dbl>,
## #   MAN_COLL <dbl>, RELJCT1 <dbl>, RELJCT2 <dbl>, TYP_INT <dbl>,
## #   WRK_ZONE <dbl>, REL_ROAD <dbl>, LGT_COND <dbl>, WEATHER1 <dbl>, …
…
Single Year

If you wish to just look at fatality data for a a single year, use
the fars_read_years() function with a single year as input.
The only data columns selected are MONTH and
year. This returns a list of length one, and the first
element in the list is the as_tibble (the
tidyverse data frame) listing the month and year for each
fatal accident.

fars_2014 <- fars_read_years(years = 2014)
fars_2014[[1]]

## # A tibble: 30,056 × 2
##    MONTH  year
##    <dbl> <dbl>
##  1     1  2014
##  2     1  2014
##  3     1  2014
##  4     1  2014
##  5     1  2014
##  6     1  2014
##  7     1  2014
##  8     1  2014
##  9     1  2014
## 10     1  2014
## # ℹ 30,046 more rows

Multiple Years

If you wish to look at fatalities for multiple years, enter a vector
of years as the argument for the fars_read_years() function
(examples: fars_read_years(years = c(2013, 2015)) or
fars_read_years(2013:2015). Again, this returns a list of
tbl_dfs, with each element of the list showing the month
and year for each fatality.

fars_3yrs <- fars_read_years(years = 2013:2015)
fars_3yrs

## [[1]]
## # A tibble: 30,202 × 2
##    MONTH  year
##    <dbl> <int>
##  1     1  2013
##  2     1  2013
##  3     1  2013
##  4     1  2013
##  5     1  2013
##  6     1  2013
##  7     1  2013
##  8     1  2013
##  9     1  2013
## 10     1  2013
## # ℹ 30,192 more rows
## 
## [[2]]
## # A tibble: 30,056 × 2
##    MONTH  year
##    <dbl> <int>
##  1     1  2014
##  2     1  2014
##  3     1  2014
##  4     1  2014
##  5     1  2014
##  6     1  2014
##  7     1  2014
##  8     1  2014
##  9     1  2014
## 10     1  2014
## # ℹ 30,046 more rows
## 
## [[3]]
## # A tibble: 32,166 × 2
##    MONTH  year
##    <dbl> <int>
##  1     1  2015
##  2     1  2015
##  3     1  2015
##  4     1  2015
##  5     1  2015
##  6     1  2015
##  7     1  2015
##  8     1  2015
##  9     1  2015
## 10     1  2015
## # ℹ 32,156 more rows
…
